Load and visualize PHG metrics • rPHG2
…
General use

From the previously created metData object, we can
directly access various types of data through a series of accessor
methods.

If we want to extract all metrics tables as
data.frame-like objects, we can use the
metricsTable() function, which will return a
list object of data.frame tables:

metData |> metricsTable()

## $toy_anchors_s01
## # A tibble: 969 × 10
##    ref_chr reference_start reference_end query_chr query_start query_end strand
##      <int>           <int>         <int>     <int>       <int>     <int> <chr> 
##  1       1           52892         53561         1       22637     23277 +     
##  2       1          275401        278445         1      196230    199275 +     
##  3       1          665653        669559         1      456629    460535 +     
##  4       1          723978        724529         1      514619    515170 +     
##  5       1         1031998       1033805         1      788012    789822 +     
##  6       1         1497930       1503054         1     1250572   1255668 +     
##  7       1         1517777       1519239         1     1270343   1271805 +     
##  8       1         2466395       2468560         1     2047907   2050072 +     
##  9       1         2533102       2536854         1     2093924   2097674 +     
## 10       1         2638837       2639286         1     2188800   2189249 +     
## # ℹ 959 more rows
## # ℹ 3 more variables: gene <chr>, block_index <int>, score <dbl>
## 
## $toy_gvcf_metrics
## # A tibble: 41 × 19
##    taxa  chrom ref_length num_snps num_ins num_del  num_ns num_bases_inserted
##    <chr> <chr>      <int>    <int>   <int>   <int>   <int>              <int>
##  1 Xb01  ALL    473519425  2706357  336754  301867 2101168           41462213
##  2 Xb01  Vu01    42129361   154059   26280   20211  181091            2600647
##  3 Xb01  Vu02    33908088   178101   21457   18981  152494            2293028
##  4 Xb01  Vu03    65292630   273800   43347   38073  284407            2694624
##  5 Xb01  Vu04    42731077   424488   34561   31514  177567            3908337
##  6 Xb01  Vu05    48746289   183067   28355   24918  224956            4352143
##  7 Xb01  Vu06    34463471   149413   22663   20431  152644            2262451
##  8 Xb01  Vu07    40876636   164945   26583   23708  178058            1966857
##  9 Xb01  Vu08    38363498   191440   26010   24047  171568            2214889
## 10 Xb01  Vu09    43933251   191892   27914   23807  187467            3967889
## # ℹ 31 more rows
## # ℹ 11 more variables: num_bases_deleted <int>,
## #   percent_identity_with_ref <dbl>, percent_mapped_to_ref <dbl>,
## #   mean_insertion_size <dbl>, median_insertion_size <dbl>,
## #   largest_insertion <int>, mean_deletion_size <dbl>,
## #   median_deletion_size <dbl>, largest_deletion <int>,
## #   ref_ranges_with_haplotype <int>, haplotypes_identical_to_ref <int>
…
/path/to/my/alignment_file.anchorspro

…the default name for this table will be alignment_file.
Depending on the complexity of the file ID, rPHG2 provides
a $ operator override which allows users to cycle through
valid metrics table names:

metData |> metricsTable(name = metData$toy_anchors_s01)

## # A tibble: 969 × 10
##    ref_chr reference_start reference_end query_chr query_start query_end strand
##      <int>           <int>         <int>     <int>       <int>     <int> <chr> 
##  1       1           52892         53561         1       22637     23277 +     
##  2       1          275401        278445         1      196230    199275 +     
##  3       1          665653        669559         1      456629    460535 +     
##  4       1          723978        724529         1      514619    515170 +     
##  5       1         1031998       1033805         1      788012    789822 +     
##  6       1         1497930       1503054         1     1250572   1255668 +     
##  7       1         1517777       1519239         1     1270343   1271805 +     
##  8       1         2466395       2468560         1     2047907   2050072 +     
##  9       1         2533102       2536854         1     2093924   2097674 +     
## 10       1         2638837       2639286         1     2188800   2189249 +     
## # ℹ 959 more rows
## # ℹ 3 more variables: gene <chr>, block_index <int>, score <dbl>

Table selection by metric type

We can also extract tables by type using the type
parameter in the metricsTable() function. Currently, the
two metric types that PHGv2 provides are as follows:

align - For AnchorWave alignment files

gvcf - For gVCF metrics files

metData |> metricsTable(type = "gvcf")

## # A tibble: 41 × 19
##    taxa  chrom ref_length num_snps num_ins num_del  num_ns num_bases_inserted
##    <chr> <chr>      <int>    <int>   <int>   <int>   <int>              <int>
##  1 Xb01  ALL    473519425  2706357  336754  301867 2101168           41462213
##  2 Xb01  Vu01    42129361   154059   26280   20211  181091            2600647
##  3 Xb01  Vu02    33908088   178101   21457   18981  152494            2293028
##  4 Xb01  Vu03    65292630   273800   43347   38073  284407            2694624
##  5 Xb01  Vu04    42731077   424488   34561   31514  177567            3908337
##  6 Xb01  Vu05    48746289   183067   28355   24918  224956            4352143
##  7 Xb01  Vu06    34463471   149413   22663   20431  152644            2262451
##  8 Xb01  Vu07    40876636   164945   26583   23708  178058            1966857
##  9 Xb01  Vu08    38363498   191440   26010   24047  171568            2214889
## 10 Xb01  Vu09    43933251   191892   27914   23807  187467            3967889
## # ℹ 31 more rows
## # ℹ 11 more variables: num_bases_deleted <int>,
## #   percent_identity_with_ref <dbl>, percent_mapped_to_ref <dbl>,
## #   mean_insertion_size <dbl>, median_insertion_size <dbl>,
## #   largest_insertion <int>, mean_deletion_size <dbl>,
## #   median_deletion_size <dbl>, largest_deletion <int>,
## #   ref_ranges_with_haplotype <int>, haplotypes_identical_to_ref <int>
…
