Introduction to rPHG2 • rPHG2
…
##          1:1-1000                           1:1001-5500                       
## LineA_G1 "12f0cec9102e84a161866e37072443b7" "3149b3144f93134eb29661bade697fc6"
## LineB_G1 "4fc7b8af32ddd74e07cb49d147ef1938" "8967fabf10e55d881caa6fe192e7d4ca"
##          1:5501-6500                       
## LineA_G1 "1b568197f6f329ec5b71f66e49a732fb"
## LineB_G1 "05efe15d97db33185b64821791b01b0f"

Haplotype ID metadata

To return metadata for each haplotype ID as a tibble
object, we can use the readHapIdMetaData() function:

graph |> readHapIdMetaData()

## # A tibble: 76 × 6
##    hap_id                 sample_name description source checksum ref_range_hash
##    <chr>                  <chr>       <chr>       <chr>  <chr>    <chr>         
##  1 0eb9029f3896313aebc69… LineA       haplotype … /User… Md5      39f96726321b3…
##  2 12f0cec9102e84a161866… LineA       haplotype … /User… Md5      546d1839623a5…
##  3 13417ecbb38b9a159e3ca… LineA       haplotype … /User… Md5      5812acb1aff74…
##  4 18498579d89483ac270e8… LineA       haplotype … /User… Md5      e07d04d2fc96b…
##  5 184a72815a2ba5949635c… LineA       haplotype … /User… Md5      cb86faf105b19…
##  6 1b568197f6f329ec5b71f… LineA       haplotype … /User… Md5      d896e9cc56e74…
##  7 1e38bd82670c3f10982f7… LineA       haplotype … /User… Md5      db22dfc14799b…
##  8 3149b3144f93134eb2966… LineA       haplotype … /User… Md5      57705b1e2541c…
##  9 369464a8743d2e40ad83d… LineA       haplotype … /User… Md5      66465399052d8…
## 10 3ec680649615da0685b8c… LineA       haplotype … /User… Md5      347f0478b1a55…
## # ℹ 66 more rows

Haplotype ID metadata (positions)

To return positional information for each haplotype ID as another
tibble object, we can use the
readHapIdPosMetaData() function:

graph |> readHapIdPosMetaData()

## # A tibble: 76 × 5
##    hap_id                           contig_start contig_end start   end
##    <chr>                            <chr>        <chr>      <int> <int>
##  1 0eb9029f3896313aebc69c8489923141 2            2          49501 50300
##  2 12f0cec9102e84a161866e37072443b7 1            1              1  1000
##  3 13417ecbb38b9a159e3ca8c9dade7088 2            2              1  1000
##  4 18498579d89483ac270e8cca57f34752 1            1          16501 17500
##  5 184a72815a2ba5949635cc38769cedd0 2            2          12001 16500
##  6 1b568197f6f329ec5b71f66e49a732fb 1            1           5501  6500
##  7 1e38bd82670c3f10982f70390c599a8d 2            2          16501 17500
##  8 3149b3144f93134eb29661bade697fc6 1            1           1001  5500
##  9 369464a8743d2e40ad83d1375c196bdd 1            1           6501 11000
## 10 3ec680649615da0685b8c245e0f196e2 2            2          11001 12000
## # ℹ 66 more rows
…
